{
  "status": {
    "rid": "yY67newuzaiTAwoKxn4=",
    "time-ms": 1
  },
  "hits": {
    "found": 5,
    "start": 0,
    "hit": [
      {
        "id": "avonturendoolhof-de",
        "fields": {
          "category": "attraction",
          "hide_in_app": false,
          "properties": [
            "childrentwelveyears2",
            "notaccessiblewheelchairs",
            "outdoorattraction",
            "wet"
          ],
          "subtitle": "Kinder-Labyrinth",
          "name": "Avonturendoolhof",
          "detail_text": "<p>Achte auf die Hinweise der sprechenden Bilder und finde den Weg zum Ausgang. Nimm dich in Acht, vor den Font&auml;nen, die mit ihren Wasserstrahlen auf dich zielen.&nbsp;Nur f&uuml;r Kinder, die kleiner als 1,50 Meter sind.</p>",
          "text": "Irrgarten",
          "can_order": false,
          "latlon": "51.651535,5.052409",
          "targetgroups": [
            "youngest-ones"
          ],
          "language": "de",
          "image_detailview1": "/de/-/media/images/app/detailview/attracties/avonturen-doolhof/1024x576-doolhof.jpg",
          "image": "/de/-/media/images/app/quickview/attracties/260x400-doolhof.jpg",
          "empire": "Reizenrijk",
          "showduration": "0",
          "type": "irrgarten",
          "id": "avonturendoolhof",
          "has_assortment": false
        }
      },
      {
        "id": "baron1898-de",
        "fields": {
          "hide_in_app": false,
          "alternateid": "baron1898singlerider",
          "subtitle": "Unten liegt ein Schatz",
          "text": "Dive Coaster",
          "can_order": false,
          "empire": "Ruigrijk",
          "id": "baron1898",
          "category": "attraction",
          "targetgroups": [
            "thrillseekers"
          ],
          "type": "Dive Coaster",
          "image": "/de/-/media/images/app/quickview/attracties/260x400-baron.jpg",
          "alternatetype": "singlerider",
          "latlon": "51.64827,5.050988",
          "alternatelabel": "≤ 17 Wartereihe",
          "image_detailview1": "/de/-/media/images/app/detailview/attracties/baron-1898/gallery-1.jpg",
          "properties": [
            "nophysicalhelp2",
            "redwhitezones",
            "placesallocated",
            "leavingearlynotpossible2",
            "minimum132",
            "transfernecessary",
            "pregnantwomen",
            "injuries",
            "dizzy",
            "closedduringshow",
            "semicoveredattraction"
          ],
          "has_assortment": false,
          "detail_text": "<p>Im freien Fall senkrecht nach unten! Um die Miene im Baron 1898 zu betreten, st&uuml;rzt du 37,5 Meter hinab! Eine Fahrt f&uuml;r die wirklich Waghalsigen mit &uuml;ber 1,32 Meter K&ouml;rpergr&ouml;&szlig;e. Dauer: 2 Minuten.</p> <p>&le; 17 Wartereihe: Diese Wartereihe ist nur f&uuml;r Personen bis einschl. 17 Jahre zug&auml;nglich. Es muss kein Abstand eingehalten werden. Pl&auml;tze werden vergeben und k&ouml;nnen nicht ausgew&auml;hlt werden. Gruppen k&ouml;nnen aufgeteilt werden.</p> <p>Rollstuhleingang: &uuml;ber einen speziellen Weg, rechts neben dem Ausgang der Attraktion.</p>",
          "name": "Baron 1898",
          "language": "de",
          "showduration": "0"
        }
      },
      {
        "id": "fabula-de",
        "fields": {
          "category": "attraction",
          "hide_in_app": false,
          "name": "Fabula",
          "detail_text": "<p>In Fabula ist man hautnah dabei, wenn der junge, knurrige B&auml;r und das tapfere Eichh&ouml;rnchen r&uuml;hrende, spannende und heitere Momente erleben. W&auml;hrend des 3D-Films erlebst du verschiedene 4D-Effekte wie Wasser, Duft und Wind. Dauer des Films: 8 Minuten.</p> <p>Rollstuhleingang: durch den Eingang der Attraktion. Folge auf halber Strecke dem speziellen Weg und bet&auml;tige die Klingel am Rollstuhleingang. Ein Mitarbeiter holt dich ab.</p>",
          "language": "de",
          "text": "4D-Filmabenteuer",
          "can_order": false,
          "latlon": "51.64905115,5.04819117",
          "properties": [
            "nophysicalhelp2",
            "redwhitezones",
            "placesallocated",
            "leavingearlynotpossible2",
            "dizzy",
            "attractionforfamiliy",
            "indoorattraction",
            "easilyaccessiblewheelchairs",
            "assistancedogs"
          ],
          "image_detailview2": "/de/-/media/images/app/detailview/attracties/fabula/1024x576-fabula-bioscoopzaal.jpg",
          "image_detailview1": "/de/-/media/images/app/detailview/attracties/fabula/1024x576-fabula-scenebeeld.jpg",
          "image": "/de/-/media/images/app/quickview/attracties/260x400-fabula-2.jpg",
          "empire": "Anderrijk",
          "showduration": "0",
          "type": "4D-Filmabenteuer",
          "id": "fabula",
          "has_assortment": false
        }
      },
      {
        "id": "devliegendehollander-de",
        "fields": {
          "hide_in_app": false,
          "alternateid": "devliegendehollandersinglerider",
          "subtitle": "Eine verbotene Fahrt",
          "text": "Wassercoaster",
          "can_order": false,
          "empire": "Ruigrijk",
          "id": "devliegendehollander",
          "category": "attraction",
          "targetgroups": [
            "thrillseekers"
          ],
          "type": "Wassercoaster",
          "image": "/de/-/media/images/app/quickview/attracties/260x400-quickview-vliegende-hollander-waterachtbaan.jpg",
          "alternatetype": "singlerider",
          "latlon": "51.647411,5.052354",
          "alternatelabel": "≤ 17 Wartereihe",
          "image_detailview3": "/de/-/media/images/app/detailview/attracties/de-vliegende-hollander/gallery-3.jpg",
          "image_detailview2": "/de/-/media/images/app/detailview/attracties/de-vliegende-hollander/gallery-2.jpg",
          "image_detailview1": "/de/-/media/images/app/detailview/attracties/de-vliegende-hollander/1024x576-de-vliegende-hollander-waterachtbaan.jpg",
          "properties": [
            "nophysicalhelp2",
            "redwhitezones",
            "placesallocated",
            "leavingearlynotpossible2",
            "transfernecessary",
            "minimum120",
            "dizzy",
            "pregnantwomen",
            "semicoveredattraction",
            "closedduringshow",
            "wet"
          ],
          "has_assortment": false,
          "detail_text": "<p>Begib dich mit dem Wassercoaster \"De Vliegende Hollander\" auf ein spannendes Abenteuer, bei dem du wahrscheinlich nicht trocken bleiben wirst! Ab einer K&ouml;rpergr&ouml;&szlig;e von 1,20 Meter darf jeder Fahrgast an Bord gehen. Traust du dich?</p> <p>Dauer: knapp 4 Minuten.</p> <p>&le; 17 Wartereihe: Diese Wartereihe ist nur f&uuml;r Personen bis einschl. 17 Jahre zug&auml;nglich. Es muss kein Abstand eingehalten werden. Pl&auml;tze werden vergeben und k&ouml;nnen nicht ausgew&auml;hlt werden. Gruppen k&ouml;nnen aufgeteilt werden.</p> <p>Rollstuhleingang: &uuml;ber einen speziellen Weg, rechts neben Eingang der Attraktion. Klingel bitte am Rollstuhl-Zugang, damit dich ein Mitarbeiter abholt.</p> <p>G&auml;ste ab 13 Jahren, die beim Betreten und Verlassen von Attraktionen Hilfe ben&ouml;tigen, k&ouml;nnen momentan diese Attraktion nicht besuchen.</p>",
          "name": "De Vliegende Hollander",
          "language": "de",
          "showduration": "0"
        }
      },
      {
        "id": "gamegallery-de",
        "fields": {
          "category": "attraction",
          "hide_in_app": false,
          "properties": [
            "outdoorattraction"
          ],
          "subtitle": "Angel nach Gewinnen",
          "name": "Game Gallery",
          "detail_text": "<p>Ein traditioneller Spielplatz im Freien. Hier kannst du gegen Bezahlung Spiele spielen und tolle Preise gewinnen. Es gibt auch einen Süßwarenladen und ein Fotostudio, in dem du vor einem echten Efteling-Hintergrund die tollsten Fotos machen lassen kannst.</p>",
          "language": "de",
          "text": "Spielegalerie",
          "can_order": false,
          "latlon": "51.648235,5.053014",
          "targetgroups": [
            "whole-family"
          ],
          "image_detailview2": "/de/-/media/images/app/detailview/attracties/game-gallery/gallery-2.jpg",
          "image_detailview1": "/de/-/media/images/app/detailview/attracties/game-gallery/1024x576-game-gallery-2.jpg",
          "image": "/de/-/media/images/app/quickview/attracties/260x400-quickview-game-gallery.jpg",
          "empire": "Ruigrijk",
          "showduration": "0",
          "type": "spiele-galerie",
          "id": "gamegallery",
          "has_assortment": false
        }
      }
    ]
  }
}